<svg width="14" height="20" viewBox="0 0 14 20" fill="none" xmlns="http://www.w3.org/2000/svg">
<path d="M0.70998 7.7C1.09998 8.09 1.72998 8.09 2.11998 7.7L5.99998 3.83V19C5.99998 19.55 6.44998 20 6.99998 20C7.54998 20 7.99998 19.55 7.99998 19V3.83L11.88 7.71C12.27 8.1 12.9 8.1 13.29 7.71C13.68 7.32 13.68 6.69 13.29 6.3L7.69998 0.700001C7.30998 0.310001 6.67998 0.310001 6.28998 0.700001L0.70998 6.29C0.31998 6.68 0.31998 7.32 0.70998 7.7Z" fill="white" fill-opacity="0.9"/>
</svg>
