<svg width="28" height="28" viewBox="0 0 28 28" fill="none" xmlns="http://www.w3.org/2000/svg">
<path d="M8.16669 2.33331V15.1666H11.6667V25.6666L19.8334 11.6666H15.1667L18.6667 2.33331H8.16669Z" fill="#FAA72B"/>
</svg>
