<svg width="24" height="24" viewBox="0 0 24 24" fill="none" xmlns="http://www.w3.org/2000/svg">
<path d="M20 9C19.96 4.61 16.4 1.07 12 1.07C7.6 1.07 4.04 4.61 4 9V15C4 19.42 7.58 23 12 23C16.42 23 20 19.42 20 15V9ZM18 9H13V3.16C15.81 3.63 17.96 6.06 18 9ZM11 3.16V9H6C6.04 6.06 8.19 3.63 11 3.16ZM18 15C18 18.31 15.31 21 12 21C8.69 21 6 18.31 6 15V11H18V15Z" fill="#C2C5E8"/>
</svg>
